hw5
…
b%>%group_by(`Bottles Sold`)

## # A tibble: 382,033 x 28
## # Groups:   Bottles Sold [155]
##    `Invoice/Item N~ month day   year  `Store Number` `Store Name` Address
##    <chr>            <chr> <chr> <chr>          <dbl> <chr>        <chr>  
##  1 INV-15386000001  10    31    2018            4129 Cyclone Liq~ 626 Li~
##  2 INV-15386000002  10    31    2018            4129 Cyclone Liq~ 626 Li~
##  3 INV-15386200001  10    31    2018            4129 Cyclone Liq~ 626 Li~
##  4 INV-15386600001  10    31    2018            4129 Cyclone Liq~ 626 Li~
##  5 INV-15397500001  10    31    2018            3524 Sam's Club ~ 305 Ai~
##  6 INV-15397600001  10    31    2018            3524 Sam's Club ~ 305 Ai~
##  7 INV-15397700001  10    31    2018            3524 Sam's Club ~ 305 Ai~
##  8 INV-15397700002  10    31    2018            3524 Sam's Club ~ 305 Ai~
##  9 INV-15397700003  10    31    2018            3524 Sam's Club ~ 305 Ai~
## 10 INV-15397700004  10    31    2018            3524 Sam's Club ~ 305 Ai~
## # ... with 382,023 more rows, and 21 more variables: City <chr>, `Zip
## #   Code` <dbl>, StoreLocation <chr>, lat <dbl>, long <dbl>, `County
## #   Number` <dbl>, County <chr>, Category <dbl>, `Category Name` <chr>,
## #   `Vendor Number` <dbl>, `Vendor Name` <chr>, `Item Number` <dbl>, `Item
## #   Description` <chr>, Pack <dbl>, `Bottle Volume (ml)` <dbl>, `State
## #   Bottle Cost` <dbl>, `State Bottle Retail` <dbl>, `Bottles Sold` <dbl>,
## #   `Sale (Dollars)` <dbl>, `Volume Sold (Liters)` <dbl>, `Volume Sold
## #   (Gallons)` <dbl>
…
c<- b%>%filter(year==2018)

dailysale<-c%>% group_by(day,month)%>%summarize(sumBottleSold=sum(`Bottles Sold`),sumSale=sum(`Sale (Dollars)`),sumVolumnSold=sum(`Volume Sold (Liters)`))
dailysale

## # A tibble: 146 x 5
## # Groups:   day [31]
##    day   month sumBottleSold sumSale sumVolumnSold
##    <chr> <chr>         <dbl>   <dbl>         <dbl>
##  1 01    02              136    747.          51.8
##  2 01    03               87    543.          46.8
##  3 01    06             1214  16954.        1267. 
##  4 01    08             8504 149461.        8694. 
##  5 02    02             2120  38350.        2464. 
##  6 02    03             1383  18291.        1265. 
##  7 02    04              112   2937          104. 
##  8 02    05            14852 182485.       15169. 
##  9 02    07              257   2837.         210. 
## 10 02    11             1745  23861.        1594. 
## # ... with 136 more rows

dailysale

## # A tibble: 146 x 5
## # Groups:   day [31]
##    day   month sumBottleSold sumSale sumVolumnSold
##    <chr> <chr>         <dbl>   <dbl>         <dbl>
##  1 01    02              136    747.          51.8
##  2 01    03               87    543.          46.8
##  3 01    06             1214  16954.        1267. 
##  4 01    08             8504 149461.        8694. 
##  5 02    02             2120  38350.        2464. 
##  6 02    03             1383  18291.        1265. 
##  7 02    04              112   2937          104. 
##  8 02    05            14852 182485.       15169. 
##  9 02    07              257   2837.         210. 
## 10 02    11             1745  23861.        1594. 
## # ... with 136 more rows
…
